{
	"IcoMoonType": "selection",
	"icons": [
		{
			"icon": {
				"paths": [
					"M793.129 509.535h-562.258c-89.372 0-161.819 72.52-161.819 161.873v130.066c0 89.354 72.447 161.855 161.819 161.855h562.258c89.354 0 161.819-72.502 161.819-161.855v-130.066c-0-89.354-72.466-161.873-161.819-161.873zM348.998 610.791h-52.272v259.734h-50.502v-259.734h-52.236v-44.18h155.010v44.18zM496.656 870.526h-44.794v-24.565c-8.327 9.085-16.906 16.021-25.865 20.699-8.959 4.877-17.611 7.153-26.028 7.153-10.404 0-18.134-3.305-23.427-10.025-5.202-6.701-7.857-16.635-7.857-30.055v-187.431h44.794v172.006c0 5.31 0.993 9.121 2.782 11.488 1.933 2.438 5.003 3.558 9.212 3.558 3.251 0 7.442-1.553 12.481-4.696 5.075-3.179 9.699-7.153 13.908-12.066v-170.308h44.794v224.242zM659.288 824.232c0 15.841-3.522 28.014-10.548 36.504-6.99 8.489-17.213 12.662-30.453 12.662-8.814 0-16.653-1.589-23.463-4.877-6.846-3.251-13.294-8.254-19.164-15.19v17.177h-45.336v-303.896h45.336v97.879c6.069-6.773 12.481-12.029 19.182-15.552 6.846-3.594 13.727-5.328 20.699-5.328 14.179 0 24.98 4.732 32.458 14.287 7.514 9.555 11.253 23.553 11.253 41.904v124.43zM814.677 763.814h-85.723v42.247c0 11.777 1.445 19.977 4.371 24.547 2.998 4.588 8.038 6.828 15.208 6.828 7.442 0 12.589-1.933 15.588-5.798 2.89-3.901 4.443-12.391 4.443-25.576v-10.205h46.113v11.506c0 22.975-5.581 40.297-16.906 51.983-11.144 11.578-27.942 17.322-50.267 17.322-20.103 0-35.944-6.123-47.449-18.442-11.469-12.246-17.322-29.243-17.322-50.845v-100.715c0-19.381 6.394-35.33 19.092-47.558 12.662-12.228 28.972-18.333 49.039-18.333 20.537 0 36.305 5.653 47.305 16.997 11 11.361 16.509 27.617 16.509 48.876v57.167z",
					"M748.967 679.969c-7.153 0-12.246 2.005-15.353 6.195-3.179 3.938-4.66 10.675-4.66 20.085v22.668h39.61v-22.668c0-9.41-1.589-16.166-4.732-20.085-3.016-4.172-8.056-6.195-14.865-6.195z",
					"M594.409 679.211c-3.179 0-6.394 0.704-9.483 2.167-3.143 1.427-6.213 3.793-9.248 6.864v139.675c3.594 3.612 7.153 6.394 10.621 7.983 3.45 1.535 7.026 2.402 10.837 2.402 5.509 0 9.519-1.589 12.102-4.805 2.547-3.179 3.847-8.254 3.847-15.425v-115.797c0-7.622-1.517-13.33-4.696-17.249-3.287-3.865-7.947-5.816-13.98-5.816z",
					"M304.492 431.65h56.788v-138.898l66.126-195.939h-57.727l-35.149 133.841h-3.576l-36.901-133.841h-57.203l67.643 202.188z",
					"M504.351 437.882c22.939 0 40.929-6.015 54.042-18.044 13.023-12.084 19.543-28.574 19.543-49.707v-127.591c0-18.803-6.665-34.282-19.941-46.221-13.366-11.903-30.489-17.9-51.369-17.9-22.939 0-41.2 5.672-54.783 16.997-13.547 11.325-20.356 26.515-20.356 45.715v128.025c0 21.006 6.629 37.624 19.868 50.086 13.24 12.409 30.941 18.64 52.994 18.64zM483.435 239.252c0-5.364 1.933-9.699 5.708-13.095 3.919-3.323 8.887-4.931 15.064-4.931 6.665 0 12.066 1.608 16.184 4.931 4.1 3.396 6.141 7.731 6.141 13.095v134.581c0 6.593-2.005 11.831-6.069 15.606-4.028 3.793-9.447 5.653-16.256 5.653-6.665 0-11.813-1.806-15.425-5.599-3.558-3.703-5.364-8.905-5.364-15.678v-134.563z",
					"M654.104 435.263c9.483 0 19.218-2.709 29.243-7.911 10.133-5.274 19.832-12.987 29.062-23.047v27.364h50.448v-247.001h-50.448v187.486c-4.696 5.364-9.916 9.772-15.515 13.276-5.708 3.468-10.404 5.202-14.107 5.202-4.732 0-8.218-1.3-10.259-3.992-2.077-2.583-3.251-6.809-3.251-12.607v-189.364h-50.375v206.433c0 14.721 2.962 25.721 8.814 33.018 5.961 7.405 14.667 11.144 26.389 11.144z"
				],
				"attrs": [
					{
						"opacity": 1,
						"visibility": false
					},
					{
						"opacity": 1,
						"visibility": false
					},
					{
						"opacity": 1,
						"visibility": false
					},
					{
						"opacity": 1,
						"visibility": false
					},
					{
						"opacity": 1,
						"visibility": false
					},
					{
						"opacity": 1,
						"visibility": false
					}
				],
				"grid": 14,
				"tags": [
					"youtube"
				]
			},
			"attrs": [
				{
					"opacity": 1,
					"visibility": false
				},
				{
					"opacity": 1,
					"visibility": false
				},
				{
					"opacity": 1,
					"visibility": false
				},
				{
					"opacity": 1,
					"visibility": false
				},
				{
					"opacity": 1,
					"visibility": false
				},
				{
					"opacity": 1,
					"visibility": false
				}
			],
			"properties": {
				"order": 1,
				"id": 440,
				"prevSize": 32,
				"code": 58884,
				"name": "youtube",
				"ligatures": ""
			},
			"setIdx": 0,
			"iconIdx": 0
		},
		{
			"icon": {
				"paths": [
					"M14.857 514q0.571-7.714 6.286-12.286l410.857-342.286q18.286-14.857 43.429-14.857t43.429 14.857l139.429 116.571v-111.429q0-8 5.143-13.143t13.143-5.143h109.714q8 0 13.143 5.143t5.143 13.143v233.143l125.143 104q5.714 4.571 6.286 12.286t-4 13.429l-35.429 42.286q-4.571 5.143-12 6.286h-1.714q-7.429 0-12-4l-395.429-329.714-395.429 329.714q-6.857 4.571-13.714 4-7.429-1.143-12-6.286l-35.429-42.286q-4.571-5.714-4-13.429zM146.286 841.143v-274.286q0-0.571 0.286-1.714t0.286-1.714l328.571-270.857 328.571 270.857q0.571 1.143 0.571 3.429v274.286q0 14.857-10.857 25.714t-25.714 10.857h-219.429v-219.429h-146.286v219.429h-219.429q-14.857 0-25.714-10.857t-10.857-25.714z"
				],
				"width": 951,
				"tags": [
					"home"
				],
				"defaultCode": 61461,
				"grid": 14
			},
			"properties": {
				"order": 6,
				"id": 439,
				"prevSize": 32,
				"code": 61461,
				"name": "home",
				"ligatures": ""
			},
			"setIdx": 0,
			"iconIdx": 5
		},
		{
			"icon": {
				"paths": [
					"M36.571 512q0-14.857 10.857-25.714l256-256q10.857-10.857 25.714-10.857t25.714 10.857 10.857 25.714v512q0 14.857-10.857 25.714t-25.714 10.857-25.714-10.857l-256-256q-10.857-10.857-10.857-25.714z"
				],
				"width": 366,
				"tags": [
					"caret-left"
				],
				"defaultCode": 61657,
				"grid": 14
			},
			"properties": {
				"id": 192,
				"order": 11,
				"prevSize": 32,
				"code": 61657,
				"name": "caret-left",
				"ligatures": ""
			},
			"setIdx": 0,
			"iconIdx": 6
		},
		{
			"icon": {
				"paths": [
					"M0 768v-512q0-14.857 10.857-25.714t25.714-10.857 25.714 10.857l256 256q10.857 10.857 10.857 25.714t-10.857 25.714l-256 256q-10.857 10.857-25.714 10.857t-25.714-10.857-10.857-25.714z"
				],
				"width": 366,
				"tags": [
					"caret-right"
				],
				"defaultCode": 61658,
				"grid": 14
			},
			"properties": {
				"id": 193,
				"order": 12,
				"prevSize": 32,
				"code": 61658,
				"name": "caret-right",
				"ligatures": ""
			},
			"setIdx": 0,
			"iconIdx": 7
		},
		{
			"icon": {
				"paths": [
					"M25.714 548.571q0-7.429 5.714-13.143l266.286-266.286q5.714-5.714 13.143-5.714t13.143 5.714l28.571 28.571q5.714 5.714 5.714 13.143t-5.714 13.143l-224.571 224.571 224.571 224.571q5.714 5.714 5.714 13.143t-5.714 13.143l-28.571 28.571q-5.714 5.714-13.143 5.714t-13.143-5.714l-266.286-266.286q-5.714-5.714-5.714-13.143z"
				],
				"width": 366,
				"tags": [
					"angle-left"
				],
				"defaultCode": 61700,
				"grid": 14
			},
			"properties": {
				"id": 232,
				"order": 9,
				"prevSize": 32,
				"code": 61700,
				"name": "angle-left",
				"ligatures": ""
			},
			"setIdx": 0,
			"iconIdx": 8
		},
		{
			"icon": {
				"paths": [
					"M7.429 786.286q0-7.429 5.714-13.143l224.571-224.571-224.571-224.571q-5.714-5.714-5.714-13.143t5.714-13.143l28.571-28.571q5.714-5.714 13.143-5.714t13.143 5.714l266.286 266.286q5.714 5.714 5.714 13.143t-5.714 13.143l-266.286 266.286q-5.714 5.714-13.143 5.714t-13.143-5.714l-28.571-28.571q-5.714-5.714-5.714-13.143z"
				],
				"width": 366,
				"tags": [
					"angle-right"
				],
				"defaultCode": 61701,
				"grid": 14
			},
			"properties": {
				"id": 233,
				"order": 8,
				"prevSize": 32,
				"code": 61701,
				"name": "angle-right",
				"ligatures": ""
			},
			"setIdx": 0,
			"iconIdx": 9
		},
		{
			"icon": {
				"paths": [
					"M44 676.571q0-7.429 5.714-13.143l266.286-266.286q5.714-5.714 13.143-5.714t13.143 5.714l266.286 266.286q5.714 5.714 5.714 13.143t-5.714 13.143l-28.571 28.571q-5.714 5.714-13.143 5.714t-13.143-5.714l-224.571-224.571-224.571 224.571q-5.714 5.714-13.143 5.714t-13.143-5.714l-28.571-28.571q-5.714-5.714-5.714-13.143z"
				],
				"width": 658,
				"tags": [
					"angle-up"
				],
				"defaultCode": 61702,
				"grid": 14
			},
			"properties": {
				"id": 234,
				"order": 7,
				"prevSize": 32,
				"code": 61702,
				"name": "angle-up",
				"ligatures": ""
			},
			"setIdx": 0,
			"iconIdx": 10
		},
		{
			"icon": {
				"paths": [
					"M44 420.571q0-7.429 5.714-13.143l28.571-28.571q5.714-5.714 13.143-5.714t13.143 5.714l224.571 224.571 224.571-224.571q5.714-5.714 13.143-5.714t13.143 5.714l28.571 28.571q5.714 5.714 5.714 13.143t-5.714 13.143l-266.286 266.286q-5.714 5.714-13.143 5.714t-13.143-5.714l-266.286-266.286q-5.714-5.714-5.714-13.143z"
				],
				"width": 658,
				"tags": [
					"angle-down"
				],
				"defaultCode": 61703,
				"grid": 14
			},
			"properties": {
				"id": 235,
				"order": 10,
				"prevSize": 32,
				"code": 61703,
				"name": "angle-down",
				"ligatures": ""
			},
			"setIdx": 0,
			"iconIdx": 11
		},
		{
			"icon": {
				"paths": [
					"M575.87 1024h-191.87v-512h-128v-176.45l128-0.058-0.208-103.952c0-143.952 39.034-231.54 208.598-231.54h141.176v176.484h-88.23c-66.032 0-69.206 24.656-69.206 70.684l-0.262 88.324h158.69l-18.704 176.45-139.854 0.058-0.13 512z"
				],
				"tags": [
					"facebook",
					"social"
				],
				"grid": 16
			},
			"properties": {
				"id": 361,
				"order": 2,
				"prevSize": 32,
				"code": 58882,
				"name": "facebook",
				"ligatures": ""
			},
			"setIdx": 0,
			"iconIdx": 1
		},
		{
			"icon": {
				"paths": [
					"M1024 194.418c-37.676 16.708-78.164 28.002-120.66 33.080 43.372-26 76.686-67.17 92.372-116.23-40.596 24.078-85.556 41.56-133.41 50.98-38.32-40.83-92.922-66.34-153.346-66.34-116.022 0-210.088 94.058-210.088 210.078 0 16.466 1.858 32.5 5.44 47.878-174.6-8.764-329.402-92.4-433.018-219.506-18.084 31.028-28.446 67.116-28.446 105.618 0 72.888 37.088 137.192 93.46 174.866-34.438-1.092-66.832-10.542-95.154-26.278-0.020 0.876-0.020 1.756-0.020 2.642 0 101.788 72.418 186.696 168.522 206-17.626 4.8-36.188 7.372-55.348 7.372-13.538 0-26.698-1.32-39.528-3.772 26.736 83.46 104.32 144.206 196.252 145.896-71.9 56.35-162.486 89.934-260.916 89.934-16.958 0-33.68-0.994-50.116-2.94 92.972 59.61 203.402 94.394 322.042 94.394 386.422 0 597.736-320.124 597.736-597.744 0-9.108-0.206-18.168-0.61-27.18 41.056-29.62 76.672-66.62 104.836-108.748z"
				],
				"tags": [
					"twitter",
					"tweet",
					"social"
				],
				"grid": 16
			},
			"properties": {
				"id": 365,
				"order": 3,
				"prevSize": 32,
				"code": 58880,
				"name": "twitter",
				"ligatures": ""
			},
			"setIdx": 0,
			"iconIdx": 2
		},
		{
			"icon": {
				"paths": [
					"M832 128h-640c-105.6 0-192 86.4-192 192v384c0 105.6 86.4 192 192 192h640c105.6 0 192-86.4 192-192v-384c0-105.6-86.4-192-192-192zM384 768v-512l320 256-320 256z"
				],
				"tags": [
					"youtube",
					"social"
				],
				"grid": 16
			},
			"properties": {
				"id": 371,
				"order": 4,
				"prevSize": 32,
				"code": 58881,
				"name": "youtube2",
				"ligatures": ""
			},
			"setIdx": 0,
			"iconIdx": 3
		},
		{
			"icon": {
				"paths": [
					"M852 0h-680c-94.6 0-172 77.4-172 172v680c0 94.6 77.4 172 172 172h680c94.6 0 172-77.4 172-172v-680c0-94.6-77.4-172-172-172zM384 832h-128v-448h128v448zM320 320c-35.346 0-64-28.654-64-64s28.654-64 64-64 64 28.654 64 64-28.654 64-64 64zM832 832h-128v-256c0-35.346-28.654-64-64-64s-64 28.654-64 64v256h-128v-448h128v79.472c26.398-36.264 66.752-79.472 112-79.472 79.53 0 144 71.634 144 160v288z"
				],
				"tags": [
					"linkedin",
					"social"
				],
				"grid": 16
			},
			"properties": {
				"id": 415,
				"order": 5,
				"prevSize": 32,
				"code": 58883,
				"name": "linkedin2",
				"ligatures": ""
			},
			"setIdx": 0,
			"iconIdx": 4
		},
		{
			"icon": {
				"paths": [
					"M734.669 673.382l-141.21-161.382 141.21-161.382c24.013-24.013 24.013-62.925 0-86.886-24.013-23.962-62.925-23.962-86.886 0l-135.782 155.187-135.731-155.136c-24.013-24.013-62.925-24.013-86.886 0-23.962 24.013-23.962 62.925 0 86.886l141.158 161.331-141.21 161.382c-23.962 24.013-23.962 62.822 0 86.784 24.013 24.013 62.925 24.013 86.886 0l135.782-155.085 135.731 155.085c24.013 24.013 62.925 24.013 86.886 0s24.013-62.771 0.051-86.784z"
				],
				"tags": [
					"cross",
					"cancel",
					"close",
					"remove",
					"delete"
				],
				"grid": 20
			},
			"properties": {
				"id": 120,
				"order": 13,
				"prevSize": 20,
				"code": 58885,
				"name": "cross",
				"ligatures": ""
			},
			"setIdx": 15,
			"iconIdx": 120
		}
	],
	"height": 1024,
	"metadata": {
		"name": "icomoon"
	},
	"preferences": {
		"fontPref": {
			"prefix": "icon-",
			"metadata": {
				"fontFamily": "icomoon"
			},
			"showGlyphs": true,
			"metrics": {
				"emSize": 512,
				"baseline": 6.25,
				"whitespace": 50
			},
			"resetPoint": 58880,
			"showQuickUse": true,
			"quickUsageToken": false,
			"showMetrics": true,
			"showMetadata": false
		},
		"imagePref": {
			"color": 0,
			"height": 32,
			"columns": 16,
			"margin": 16,
			"png": false,
			"sprites": true
		},
		"historySize": 100,
		"showCodes": true,
		"gridSize": 16,
		"showLiga": false,
		"showGrid": true,
		"showGlyphs": true,
		"showQuickUse": true,
		"search": ""
	}
}